{
  "sectionRef": "Ecclesiastes 5",
  "type": "Tanakh",
  "titleVariants": [
    "Ecc",
    "Ecclesiastes",
    "Ecc.",
    "Kohelet",
    "Eccles.",
    "Koheleth",
    "Koh."
  ],
  "heVersionStatus": "locked",
  "length": 12,
  "heRef": "\u05e7\u05d4\u05dc\u05ea \u05d4\u05f3",
  "sheets": [],
  "firstAvailableSectionRef": "Ecclesiastes 5",
  "he": [
    "\u05d0\u05b7\u05dc\u05be\u05ea\u05bc\u05b0\u05d1\u05b7\u05d4\u05b5\u05a8\u05dc \u05e2\u05b7\u05dc\u05be\u05e4\u05bc\u05b4\u059c\u05d9\u05da\u05b8 \u05d5\u05b0\u05dc\u05b4\u05d1\u05bc\u05b0\u05da\u05b8\u05a7 \u05d0\u05b7\u05dc\u05be\u05d9\u05b0\u05de\u05b7\u05d4\u05b5\u059b\u05e8 \u05dc\u05b0\u05d4\u05d5\u05b9\u05e6\u05b4\u05a5\u05d9\u05d0 \u05d3\u05b8\u05d1\u05b8\u0596\u05e8 \u05dc\u05b4\u05e4\u05b0\u05e0\u05b5\u05a3\u05d9 \u05d4\u05b8\u05d0\u05b1\u05dc\u05b9\u05d4\u05b4\u0591\u05d9\u05dd \u05db\u05bc\u05b4\u05a3\u05d9 \u05d4\u05b8\u05d0\u05b1\u05dc\u05b9\u05d4\u05b4\u05a4\u05d9\u05dd \u05d1\u05bc\u05b7\u05e9\u05c1\u05bc\u05b8\u05de\u05b7\u0599\u05d9\u05b4\u05dd\u0599 \u05d5\u05b0\u05d0\u05b7\u05ea\u05bc\u05b8\u05a3\u05d4 \u05e2\u05b7\u05dc\u05be\u05d4\u05b8\u05d0\u05b8\u0594\u05e8\u05b6\u05e5 \u05e2\u05b7\u05bd\u05dc\u05be\u05db\u05bc\u05b5\u059b\u05df \u05d9\u05b4\u05d4\u05b0\u05d9\u05a5\u05d5\u05bc \u05d3\u05b0\u05d1\u05b8\u05e8\u05b6\u0596\u05d9\u05da\u05b8 \u05de\u05b0\u05e2\u05b7\u05d8\u05bc\u05b4\u05bd\u05d9\u05dd\u05c3",
    "\u05db\u05bc\u05b4\u059b\u05d9 \u05d1\u05bc\u05b8\u05a5\u05d0 \u05d4\u05b7\u05d7\u05b2\u05dc\u0596\u05d5\u05b9\u05dd \u05d1\u05bc\u05b0\u05e8\u05b9\u05a3\u05d1 \u05e2\u05b4\u05e0\u05b0\u05d9\u05b8\u0591\u05df \u05d5\u05b0\u05e7\u05a5\u05d5\u05b9\u05dc \u05db\u05bc\u05b0\u05e1\u05b4\u0596\u05d9\u05dc \u05d1\u05bc\u05b0\u05e8\u05b9\u05a5\u05d1 \u05d3\u05bc\u05b0\u05d1\u05b8\u05e8\u05b4\u05bd\u05d9\u05dd\u05c3",
    "\u05db\u05bc\u05b7\u05d0\u05b2\u05e9\u05c1\u05b6\u05e8\u05a9 \u05ea\u05bc\u05b4\u05d3\u05bc\u05b9\u05a8\u05e8 \u05e0\u05b6\u059c\u05d3\u05b6\u05e8 \u05dc\u05bd\u05b5\u05d0\u05dc\u05b9\u05d4\u05b4\u0597\u05d9\u05dd \u05d0\u05b7\u05dc\u05be\u05ea\u05bc\u05b0\u05d0\u05b7\u05d7\u05b5\u05e8\u0599 \u05dc\u05b0\u05e9\u05c1\u05b7\u05dc\u05bc\u05b0\u05de\u0594\u05d5\u05b9 \u05db\u05bc\u05b4\u059b\u05d9 \u05d0\u05b5\u05a5\u05d9\u05df \u05d7\u05b5\u0596\u05e4\u05b6\u05e5 \u05d1\u05bc\u05b7\u05db\u05bc\u05b0\u05e1\u05b4\u05d9\u05dc\u05b4\u0591\u05d9\u05dd \u05d0\u05b5\u05a5\u05ea \u05d0\u05b2\u05e9\u05c1\u05b6\u05e8\u05be\u05ea\u05bc\u05b4\u05d3\u05bc\u05b9\u0596\u05e8 \u05e9\u05c1\u05b7\u05dc\u05bc\u05b5\u05bd\u05dd\u05c3",
    "\u05d8\u0596\u05d5\u05b9\u05d1 \u05d0\u05b2\u05e9\u05c1\u05b6\u05a3\u05e8 \u05dc\u05b9\u05bd\u05d0\u05be\u05ea\u05b4\u05d3\u05bc\u05b9\u0591\u05e8 \u05de\u05b4\u05e9\u05c1\u05b6\u05ea\u05bc\u05b4\u05d3\u05bc\u0596\u05d5\u05b9\u05e8 \u05d5\u05b0\u05dc\u05b9\u05a5\u05d0 \u05ea\u05b0\u05e9\u05c1\u05b7\u05dc\u05bc\u05b5\u05bd\u05dd\u05c3",
    "\u05d0\u05b7\u05dc\u05be\u05ea\u05bc\u05b4\u05ea\u05bc\u05b5\u05a4\u05df \u05d0\u05b6\u05ea\u05be\u05e4\u05bc\u05b4\u0599\u05d9\u05da\u05b8\u0599 \u05dc\u05b7\u05d7\u05b2\u05d8\u05b4\u05a3\u05d9\u05d0 \u05d0\u05b6\u05ea\u05be\u05d1\u05bc\u05b0\u05e9\u05c2\u05b8\u05e8\u05b6\u0594\u05da\u05b8 \u05d5\u05b0\u05d0\u05b7\u05dc\u05be\u05ea\u05bc\u05b9\u05d0\u05de\u05b7\u05e8\u0599 \u05dc\u05b4\u05e4\u05b0\u05e0\u05b5\u05a3\u05d9 \u05d4\u05b7\u05de\u05bc\u05b7\u05dc\u05b0\u05d0\u05b8\u0594\u05da\u05b0 \u05db\u05bc\u05b4\u05a5\u05d9 \u05e9\u05c1\u05b0\u05d2\u05b8\u05d2\u05b8\u0596\u05d4 \u05d4\u05b4\u0591\u05d9\u05d0 \u05dc\u05b8\u05a3\u05de\u05bc\u05b8\u05d4 \u05d9\u05b4\u05e7\u05b0\u05e6\u05b9\u05a4\u05e3 \u05d4\u05b8\u05bd\u05d0\u05b1\u05dc\u05b9\u05d4\u05b4\u05d9\u05dd\u0599 \u05e2\u05b7\u05dc\u05be\u05e7\u05d5\u05b9\u05dc\u05b6\u0594\u05da\u05b8 \u05d5\u05b0\u05d7\u05b4\u05d1\u05bc\u05b5\u0596\u05dc \u05d0\u05b6\u05ea\u05be\u05de\u05b7\u05e2\u05b2\u05e9\u05c2\u05b5\u05a5\u05d4 \u05d9\u05b8\u05d3\u05b6\u05bd\u05d9\u05da\u05b8\u05c3",
    "\u05db\u05bc\u05b4\u05a3\u05d9 \u05d1\u05b0\u05e8\u05b9\u05a4\u05d1 \u05d7\u05b2\u05dc\u05b9\u05de\u05d5\u05b9\u05ea\u0599 \u05d5\u05b7\u05d4\u05b2\u05d1\u05b8\u05dc\u05b4\u0594\u05d9\u05dd \u05d5\u05bc\u05d3\u05b0\u05d1\u05b8\u05e8\u05b4\u0596\u05d9\u05dd \u05d4\u05b7\u05e8\u05b0\u05d1\u05bc\u05b5\u0591\u05d4 \u05db\u05bc\u05b4\u05a5\u05d9 \u05d0\u05b6\u05ea\u05be\u05d4\u05b8\u05d0\u05b1\u05dc\u05b9\u05d4\u05b4\u0596\u05d9\u05dd \u05d9\u05b0\u05e8\u05b8\u05bd\u05d0\u05c3",
    "\u05d0\u05b4\u05dd\u05be\u05e2\u05b9\u05a3\u05e9\u05c1\u05b6\u05e7 \u05e8\u05b8\u05a0\u05e9\u05c1 \u05d5\u05b0\u05d2\u05b5\u05a8\u05d6\u05b6\u05dc \u05de\u05b4\u05e9\u05c1\u05b0\u05e4\u05bc\u05b8\u05a4\u05d8 \u05d5\u05b8\u05e6\u05b6\u0599\u05d3\u05b6\u05e7\u0599 \u05ea\u05bc\u05b4\u05e8\u05b0\u05d0\u05b6\u05a3\u05d4 \u05d1\u05b7\u05de\u05bc\u05b0\u05d3\u05b4\u05d9\u05e0\u05b8\u0594\u05d4 \u05d0\u05b7\u05dc\u05be\u05ea\u05bc\u05b4\u05ea\u05b0\u05de\u05b7\u0596\u05d4\u05bc \u05e2\u05b7\u05dc\u05be\u05d4\u05b7\u05d7\u05b5\u0591\u05e4\u05b6\u05e5 \u05db\u05bc\u05b4\u05a3\u05d9 \u05d2\u05b8\u05d1\u05b9\u059c\u05d4\u05bc\u05b7 \u05de\u05b5\u05e2\u05b7\u05a4\u05dc \u05d2\u05bc\u05b8\u05d1\u05b9\u0599\u05d4\u05b7\u0599 \u05e9\u05c1\u05b9\u05de\u05b5\u0594\u05e8 \u05d5\u05bc\u05d2\u05b0\u05d1\u05b9\u05d4\u05b4\u0596\u05d9\u05dd \u05e2\u05b2\u05dc\u05b5\u05d9\u05d4\u05b6\u05bd\u05dd\u05c3",
    "\u05d5\u05b0\u05d9\u05b4\u05ea\u05b0\u05e8\u05a5\u05d5\u05b9\u05df \u05d0\u05b6\u0596\u05e8\u05b6\u05e5 \u05d1\u05bc\u05b7\u05db\u05bc\u05b9\u05a3\u05dc \u05d4\u05d9\u05d0 [\u05d4\u0591\u05d5\u05bc\u05d0] \u05de\u05b6\u05a5\u05dc\u05b6\u05da\u05b0 \u05dc\u05b0\u05e9\u05c2\u05b8\u05d3\u05b6\u0596\u05d4 \u05e0\u05b6\u05e2\u05b1\u05d1\u05b8\u05bd\u05d3\u05c3",
    "\u05d0\u05b9\u05d4\u05b5\u05a5\u05d1 \u05db\u05bc\u05b6\u0599\u05e1\u05b6\u05e3\u0599 \u05dc\u05b9\u05d0\u05be\u05d9\u05b4\u05e9\u05c2\u05b0\u05d1\u05bc\u05b7\u05a3\u05e2 \u05db\u05bc\u05b6\u0594\u05e1\u05b6\u05e3 \u05d5\u05bc\u05de\u05b4\u05bd\u05d9\u05be\u05d0\u05b9\u05d4\u05b5\u05a5\u05d1 \u05d1\u05bc\u05b6\u05d4\u05b8\u05de\u0596\u05d5\u05b9\u05df \u05dc\u05b9\u05a3\u05d0 \u05ea\u05b0\u05d1\u05d5\u05bc\u05d0\u05b8\u0591\u05d4 \u05d2\u05bc\u05b7\u05dd\u05be\u05d6\u05b6\u0596\u05d4 \u05d4\u05b8\u05bd\u05d1\u05b6\u05dc\u05c3",
    "\u05d1\u05bc\u05b4\u05e8\u05b0\u05d1\u05d5\u05b9\u05ea\u0599 \u05d4\u05b7\u05d8\u05bc\u05d5\u05b9\u05d1\u05b8\u0594\u05d4 \u05e8\u05b7\u05d1\u05bc\u0596\u05d5\u05bc \u05d0\u05d5\u05b9\u05db\u05b0\u05dc\u05b6\u0591\u05d9\u05d4\u05b8 \u05d5\u05bc\u05de\u05b7\u05d4\u05be\u05db\u05bc\u05b4\u05e9\u05c1\u05b0\u05e8\u05d5\u05b9\u05df\u0599 \u05dc\u05b4\u05d1\u05b0\u05e2\u05b8\u05dc\u05b6\u0594\u05d9\u05d4\u05b8 \u05db\u05bc\u05b4\u0596\u05d9 \u05d0\u05b4\u05dd\u05be\u05e8\u05d0\u05d9\u05ea [\u05e8\u05b0\u05d0\u05a5\u05d5\u05bc\u05ea] \u05e2\u05b5\u05d9\u05e0\u05b8\u05bd\u05d9\u05d5\u05c3",
    "\u05de\u05b0\u05ea\u05d5\u05bc\u05e7\u05b8\u05d4\u0599 \u05e9\u05c1\u05b0\u05e0\u05b7\u05a3\u05ea \u05d4\u05b8\u05e2\u05b9\u05d1\u05b5\u0594\u05d3 \u05d0\u05b4\u05dd\u05be\u05de\u05b0\u05e2\u05b7\u05a5\u05d8 \u05d5\u05b0\u05d0\u05b4\u05dd\u05be\u05d4\u05b7\u05e8\u05b0\u05d1\u05bc\u05b5\u0596\u05d4 \u05d9\u05b9\u05d0\u05db\u05b5\u0591\u05dc \u05d5\u05b0\u05d4\u05b7\u05e9\u05c2\u05bc\u05b8\u05d1\u05b8\u05e2\u0599 \u05dc\u05b6\u05bd\u05e2\u05b8\u05e9\u05c1\u05b4\u0594\u05d9\u05e8 \u05d0\u05b5\u05d9\u05e0\u05b6\u059b\u05e0\u05bc\u05d5\u05bc \u05de\u05b7\u05e0\u05bc\u05b4\u05a5\u05d9\u05d7\u05b7\u05bd \u05dc\u0596\u05d5\u05b9 \u05dc\u05b4\u05d9\u05e9\u05c1\u05bd\u05d5\u05b9\u05df\u05c3",
    "\u05d9\u05b5\u059a\u05e9\u05c1 \u05e8\u05b8\u05e2\u05b8\u05a3\u05d4 \u05d7\u05d5\u05b9\u05dc\u05b8\u0594\u05d4 \u05e8\u05b8\u05d0\u05b4\u0596\u05d9\u05ea\u05b4\u05d9 \u05ea\u05bc\u05b7\u05a3\u05d7\u05b7\u05ea \u05d4\u05b7\u05e9\u05c1\u05bc\u05b8\u0591\u05de\u05b6\u05e9\u05c1 \u05e2\u05b9\u059b\u05e9\u05c1\u05b6\u05e8 \u05e9\u05c1\u05b8\u05de\u05a5\u05d5\u05bc\u05e8 \u05dc\u05b4\u05d1\u05b0\u05e2\u05b8\u05dc\u05b8\u0596\u05d9\u05d5 \u05dc\u05b0\u05e8\u05b8\u05e2\u05b8\u05ea\u05bd\u05d5\u05b9\u05c3",
    "\u05d5\u05b0\u05d0\u05b8\u05d1\u05b7\u059b\u05d3 \u05d4\u05b8\u05e2\u05b9\u05a5\u05e9\u05c1\u05b6\u05e8 \u05d4\u05b7\u05d4\u0596\u05d5\u05bc\u05d0 \u05d1\u05bc\u05b0\u05e2\u05b4\u05e0\u05b0\u05d9\u05b7\u05a3\u05df \u05e8\u05b8\u0591\u05e2 \u05d5\u05b0\u05d4\u05d5\u05b9\u05dc\u05b4\u05a3\u05d9\u05d3 \u05d1\u05bc\u05b5\u0594\u05df \u05d5\u05b0\u05d0\u05b5\u05a5\u05d9\u05df \u05d1\u05bc\u05b0\u05d9\u05b8\u05d3\u0596\u05d5\u05b9 \u05de\u05b0\u05d0\u05bd\u05d5\u05bc\u05de\u05b8\u05d4\u05c3",
    "\u05db\u05bc\u05b7\u05d0\u05b2\u05e9\u05c1\u05b6\u05a4\u05e8 \u05d9\u05b8\u05e6\u05b8\u05d0\u0599 \u05de\u05b4\u05d1\u05bc\u05b6\u05a3\u05d8\u05b6\u05df \u05d0\u05b4\u05de\u05bc\u0594\u05d5\u05b9 \u05e2\u05b8\u05e8\u059b\u05d5\u05b9\u05dd \u05d9\u05b8\u05e9\u05c1\u05a5\u05d5\u05bc\u05d1 \u05dc\u05b8\u05dc\u05b6\u0596\u05db\u05b6\u05ea \u05db\u05bc\u05b0\u05e9\u05c1\u05b6\u05d1\u05bc\u05b8\u0591\u05d0 \u05d5\u05bc\u05de\u05b0\u05d0\u0599\u05d5\u05bc\u05de\u05b8\u05d4\u0599 \u05dc\u05b9\u05d0\u05be\u05d9\u05b4\u05e9\u05c2\u05bc\u05b8\u05a3\u05d0 \u05d1\u05b7\u05e2\u05b2\u05de\u05b8\u05dc\u0594\u05d5\u05b9 \u05e9\u05c1\u05b6\u05d9\u05bc\u05b9\u05dc\u05b5\u0596\u05da\u05b0 \u05d1\u05bc\u05b0\u05d9\u05b8\u05d3\u05bd\u05d5\u05b9\u05c3",
    "\u05d5\u05b0\u05d2\u05b7\u05dd\u05be\u05d6\u05b9\u05d4\u0599 \u05e8\u05b8\u05e2\u05b8\u05a3\u05d4 \u05d7\u05d5\u05b9\u05dc\u05b8\u0594\u05d4 \u05db\u05bc\u05b8\u05dc\u05be\u05e2\u05bb\u05de\u05bc\u05b7\u05a5\u05ea \u05e9\u05c1\u05b6\u05d1\u05bc\u05b8\u0596\u05d0 \u05db\u05bc\u05b5\u05a3\u05df \u05d9\u05b5\u05dc\u05b5\u0591\u05da\u05b0 \u05d5\u05bc\u05de\u05b7\u05d4\u05be\u05d9\u05bc\u05b4\u05ea\u05b0\u05e8\u05a3\u05d5\u05b9\u05df \u05dc\u0594\u05d5\u05b9 \u05e9\u05c1\u05b6\u05bd\u05d9\u05bc\u05b7\u05e2\u05b2\u05de\u05b9\u0596\u05dc \u05dc\u05b8\u05e8\u05bd\u05d5\u05bc\u05d7\u05b7\u05c3",
    "\u05d2\u05bc\u05b7\u05a5\u05dd \u05db\u05bc\u05b8\u05dc\u05be\u05d9\u05b8\u05de\u05b8\u0596\u05d9\u05d5 \u05d1\u05bc\u05b7\u05d7\u05b9\u05a3\u05e9\u05c1\u05b6\u05da\u05b0 \u05d9\u05b9\u05d0\u05db\u05b5\u0591\u05dc \u05d5\u05b0\u05db\u05b8\u05e2\u05b7\u05a5\u05e1 \u05d4\u05b7\u05e8\u05b0\u05d1\u05bc\u05b5\u0596\u05d4 \u05d5\u05b0\u05d7\u05b8\u05dc\u05b0\u05d9\u05a5\u05d5\u05b9 \u05d5\u05b8\u05e7\u05b8\u05bd\u05e6\u05b6\u05e3\u05c3",
    "\u05d4\u05b4\u05e0\u05bc\u05b5\u059e\u05d4 \u05d0\u05b2\u05e9\u05c1\u05b6\u05e8\u05be\u05e8\u05b8\u05d0\u05b4\u05a3\u05d9\u05ea\u05b4\u05d9 \u05d0\u05b8\u0597\u05e0\u05b4\u05d9 \u05d8\u05a3\u05d5\u05b9\u05d1 \u05d0\u05b2\u05e9\u05c1\u05b6\u05e8\u05be\u05d9\u05b8\u05e4\u05b6\u05a3\u05d4 \u05dc\u05b6\u05bd\u05d0\u05b6\u05db\u05d5\u05b9\u05dc\u05be\u05d5\u05b0\u05a0\u05dc\u05b4\u05e9\u05c1\u05b0\u05ea\u05bc\u05d5\u05b9\u05ea \u05d5\u05b0\u05dc\u05b4\u05e8\u05b0\u05d0\u05a8\u05d5\u05b9\u05ea \u05d8\u05d5\u05b9\u05d1\u05b8\u059c\u05d4 \u05d1\u05bc\u05b0\u05db\u05b8\u05dc\u05be\u05e2\u05b2\u05de\u05b8\u05dc\u05a3\u05d5\u05b9 \u05c0 \u05e9\u05c1\u05b6\u05d9\u05bc\u05b7\u05e2\u05b2\u05de\u05b9\u05a3\u05dc \u05ea\u05bc\u05b7\u05bd\u05d7\u05b7\u05ea\u05be\u05d4\u05b7\u05e9\u05c1\u05bc\u05b6\u0597\u05de\u05b6\u05e9\u05c1 \u05de\u05b4\u05e1\u05b0\u05e4\u05bc\u05b7\u05a7\u05e8 \u05d9\u05b0\u05de\u05b5\u05d9\u05be\u05d7\u05d9\u05d5 [\u05d7\u05b7\u05d9\u05bc\u05b8\u059b\u05d9\u05d5] \u05d0\u05b2\u05e9\u05c1\u05b6\u05e8\u05be\u05e0\u05b8\u05bd\u05ea\u05b7\u05df\u05be\u05dc\u05a5\u05d5\u05b9 \u05d4\u05b8\u05d0\u05b1\u05dc\u05b9\u05d4\u05b4\u0596\u05d9\u05dd \u05db\u05bc\u05b4\u05d9\u05be\u05d4\u05a5\u05d5\u05bc\u05d0 \u05d7\u05b6\u05dc\u05b0\u05e7\u05bd\u05d5\u05b9\u05c3",
    "\u05d2\u05bc\u05b7\u05a3\u05dd \u05db\u05bc\u05b8\u05bd\u05dc\u05be\u05d4\u05b8\u05d0\u05b8\u05d3\u05b8\u05a1\u05dd \u05d0\u05b2\u05e9\u05c1\u05b6\u05a3\u05e8 \u05e0\u05b8\u05bd\u05ea\u05b7\u05df\u05be\u05dc\u05a3\u05d5\u05b9 \u05d4\u05b8\u05d0\u05b1\u05dc\u05b9\u05d4\u05b4\u05d9\u05dd\u05a9 \u05e2\u05b9\u05a8\u05e9\u05c1\u05b6\u05e8 \u05d5\u05bc\u05e0\u05b0\u05db\u05b8\u05e1\u05b4\u059c\u05d9\u05dd \u05d5\u05b0\u05d4\u05b4\u05e9\u05c1\u05b0\u05dc\u05b4\u05d9\u05d8\u05a8\u05d5\u05b9 \u05dc\u05b6\u05d0\u05b1\u05db\u05b9\u05a4\u05dc \u05de\u05b4\u05de\u05bc\u05b6\u0599\u05e0\u05bc\u05d5\u05bc\u0599 \u05d5\u05b0\u05dc\u05b8\u05e9\u05c2\u05b5\u05a3\u05d0\u05ea \u05d0\u05b6\u05ea\u05be\u05d7\u05b6\u05dc\u05b0\u05e7\u0594\u05d5\u05b9 \u05d5\u05b0\u05dc\u05b4\u05e9\u05c2\u05b0\u05de\u05b9\u0596\u05d7\u05b7 \u05d1\u05bc\u05b7\u05e2\u05b2\u05de\u05b8\u05dc\u0591\u05d5\u05b9 \u05d6\u05b9\u0595\u05d4 \u05de\u05b7\u05ea\u05bc\u05b7\u05a5\u05ea \u05d0\u05b1\u05dc\u05b9\u05d4\u05b4\u0596\u05d9\u05dd \u05d4\u05b4\u05bd\u05d9\u05d0\u05c3",
    "\u05db\u05bc\u05b4\u059a\u05d9 \u05dc\u05b9\u05a3\u05d0 \u05d4\u05b7\u05e8\u05b0\u05d1\u05bc\u05b5\u0594\u05d4 \u05d9\u05b4\u05d6\u05b0\u05db\u05bc\u05b9\u0596\u05e8 \u05d0\u05b6\u05ea\u05be\u05d9\u05b0\u05de\u05b5\u05a3\u05d9 \u05d7\u05b7\u05d9\u05bc\u05b8\u0591\u05d9\u05d5 \u05db\u05bc\u05b4\u05a7\u05d9 \u05d4\u05b8\u05d0\u05b1\u05dc\u05b9\u05d4\u05b4\u059b\u05d9\u05dd \u05de\u05b7\u05e2\u05b2\u05e0\u05b6\u0596\u05d4 \u05d1\u05bc\u05b0\u05e9\u05c2\u05b4\u05de\u05b0\u05d7\u05b7\u05a5\u05ea \u05dc\u05b4\u05d1\u05bc\u05bd\u05d5\u05b9\u05c3"
  ],
  "textDepth": 2,
  "sectionNames": [
    "Chapter",
    "Verse"
  ],
  "license": "Copyright: JPS, 1985",
  "heSectionRef": "\u05e7\u05d4\u05dc\u05ea \u05d4\u05f3",
  "heDigitizedBySefaria": false,
  "text": [
    "Keep your mouth from being rash, and let not your throat<i></i> be quick to bring forth speech before God. For God is in heaven and you are on earth; that is why your words should be few.",
    "Just as dreams come with much brooding, so does foolish utterance come with much speech.",
    "When you make a vow to God, do not delay to fulfill it. For He has no pleasure in fools; what you vow, fulfill.",
    "It is better not to vow at all than to vow and not fulfill.",
    "Don\u2019t let your mouth bring you into disfavor, and don\u2019t plead before the messenger<i></i> that it was an error, <i></i>-but fear God;<i></i> else God may be angered by your talk and destroy your possessions.",
    "<i></i>For much dreaming leads to futility and to superfluous talk.",
    "If you see in a province oppression of the poor and suppression of right and justice, don\u2019t wonder at the fact; for one high official is protected by a higher one, and both of them by still higher ones.",
    "Thus the greatest advantage in all the land is his: he controls a field that is cultivated.<i></i>",
    "A lover of money never has his fill of money, nor a lover of wealth his fill of income. That too is futile.",
    "As his substance increases, so do those who consume it; what, then, does the success of its owner amount to but feasting his eyes?",
    "A worker\u2019s<i></i> sleep is sweet, whether he has much or little to eat; but the rich man\u2019s abundance doesn\u2019t let him sleep.",
    "Here is a grave evil I have observed under the sun: riches hoarded by their owner to his misfortune,",
    "in that those riches are lost in some unlucky venture; and if he begets a son, he has nothing in hand.",
    "<i></i>Another grave evil is this: He must depart just as he came. As he came out of his mother\u2019s womb, so must he depart at last, naked as he came. He can take nothing of his wealth to carry with him.",
    "So what is the good of his toiling for the wind?",
    "Besides, all his days <i></i>he eats in darkness, with much vexation and grief and anger.",
    "Only this, I have found, is a real good: that one should eat and drink and get pleasure with all the gains he makes under the sun, during the numbered days of life that God has given him; for that is his portion.",
    "Also, whenever a man is given riches and property by God, and is also permitted by Him to enjoy them and to take his portion and get pleasure for his gains\u2014that is a gift of God.",
    "For [such a man] will not brood much over the days of his life,<i></i> because God keeps him busy enjoying himself."
  ],
  "lengths": [
    12,
    222
  ],
  "prev": "Ecclesiastes 4",
  "versionSource": "https://jps.org/books/tanakh-the-holy-scriptures-blue/",
  "isSpanning": false,
  "heVersionNotesInHebrew": "",
  "heVersionSource": "http://www.tanach.us/Tanach.xml",
  "digitizedBySefaria": false,
  "book": "Ecclesiastes",
  "sections": [
    5
  ],
  "heExtendedNotesHebrew": "",
  "versionTitle": "Tanakh: The Holy Scriptures, published by JPS",
  "versionNotesInHebrew": "",
  "isDependant": false,
  "versionTitleInHebrew": "",
  "heTitle": "\u05e7\u05d4\u05dc\u05ea",
  "heVersionTitleInHebrew": "\u05ea\u05e0\u05f4\u05da \u05de\u05dc\u05d5\u05d5\u05d4 \u05d1\u05d8\u05e2\u05de\u05d9 \u05de\u05e7\u05e8\u05d0",
  "heVersionNotes": "",
  "heTitleVariants": [
    "\u05e7\u05d4\u05dc\u05ea"
  ],
  "versions": [
    {
      "status": "locked",
      "extendedNotes": "",
      "versionTitle": "Tanakh: The Holy Scriptures, published by JPS",
      "versionNotesInHebrew": "",
      "extendedNotesHebrew": "",
      "versionTitleInHebrew": "",
      "license": "Copyright: JPS, 1985",
      "priority": 2.0,
      "versionNotes": "",
      "digitizedBySefaria": "",
      "language": "en",
      "versionSource": "https://jps.org/books/tanakh-the-holy-scriptures-blue/"
    },
    {
      "status": "locked",
      "extendedNotes": "",
      "versionTitle": "The Holy Scriptures: A New Translation (JPS 1917)",
      "versionNotesInHebrew": "",
      "extendedNotesHebrew": "",
      "versionTitleInHebrew": "\u05db\u05ea\u05d1\u05d9 \u05d4\u05e7\u05d5\u05d3\u05e9: \u05ea\u05e8\u05d2\u05d5\u05dd \u05d7\u05d3\u05e9 (1917 JPS)",
      "license": "Public Domain",
      "priority": 1.0,
      "versionNotes": "This 1917 translation by the Jewish Publication Society is in the public domain. JPS graciously shared digital images of this text with the Open Siddur Project, from which the text was imported by Sefaria.",
      "digitizedBySefaria": "",
      "language": "en",
      "versionSource": "http://opensiddur.org/2010/08/%D7%AA%D7%A0%D7%B4%D7%9A-the-holy-scriptures-a-new-translation-jps-1917/"
    },
    {
      "status": "locked",
      "extendedNotes": "",
      "versionTitle": "Tanach with Ta'amei Hamikra",
      "versionNotesInHebrew": "",
      "extendedNotesHebrew": "",
      "versionTitleInHebrew": "\u05ea\u05e0\u05f4\u05da \u05de\u05dc\u05d5\u05d5\u05d4 \u05d1\u05d8\u05e2\u05de\u05d9 \u05de\u05e7\u05e8\u05d0",
      "license": "Public Domain",
      "priority": 1.0,
      "versionNotes": "",
      "digitizedBySefaria": "",
      "language": "he",
      "versionSource": "http://www.tanach.us/Tanach.xml"
    },
    {
      "status": "locked",
      "extendedNotes": "",
      "versionTitle": "Tanach with Text Only",
      "versionNotesInHebrew": "",
      "extendedNotesHebrew": "",
      "versionTitleInHebrew": "\u05ea\u05e0\u05f4\u05da - \u05d8\u05e7\u05e1\u05d8 \u05d1\u05dc\u05d1\u05d3",
      "license": "Public Domain",
      "priority": "",
      "versionNotes": "",
      "digitizedBySefaria": "",
      "language": "he",
      "versionSource": "http://www.tanach.us/Tanach.xml"
    },
    {
      "status": "locked",
      "extendedNotes": "",
      "versionTitle": "Tanach with Nikkud",
      "versionNotesInHebrew": "",
      "extendedNotesHebrew": "",
      "versionTitleInHebrew": "\u05ea\u05e0\u05f4\u05da \u05e2\u05dd \u05e0\u05d9\u05e7\u05d5\u05d3",
      "license": "Public Domain",
      "priority": "",
      "versionNotes": "",
      "digitizedBySefaria": "",
      "language": "he",
      "versionSource": "http://www.tanach.us/Tanach.xml"
    },
    {
      "status": "locked",
      "extendedNotes": "",
      "versionTitle": "The Rashi Ketuvim by Rabbi Shraga Silverstein",
      "versionNotesInHebrew": "",
      "extendedNotesHebrew": "",
      "versionTitleInHebrew": "\u05db\u05ea\u05d1\u05d9 \u05e8\u05e9\u05f4\u05d9, \u05e8\u05d1\u05d9 \u05e9\u05e8\u05d2\u05d0 \u05d6\u05d9\u05dc\u05d1\u05e8\u05e9\u05d8\u05d9\u05d9\u05df",
      "license": "CC-BY",
      "priority": "",
      "versionNotes": "To enhance the quality of this text, obvious translation errors were corrected in accordance with the Hebrew source",
      "digitizedBySefaria": "",
      "language": "en",
      "versionSource": "http://www.sefaria.org/shraga-silverstein"
    },
    {
      "status": "locked",
      "extendedNotes": "",
      "versionTitle": "Kohelet by Bruce Heitler",
      "versionNotesInHebrew": "",
      "extendedNotesHebrew": "",
      "versionTitleInHebrew": "",
      "license": "CC-BY",
      "priority": "",
      "versionNotes": "",
      "digitizedBySefaria": "",
      "language": "en",
      "versionSource": "http://www.kohelet.org"
    },
    {
      "status": "locked",
      "extendedNotes": "",
      "versionTitle": "The Koren Jerusalem Bible",
      "versionNotesInHebrew": "",
      "extendedNotesHebrew": "",
      "versionTitleInHebrew": "",
      "license": "CC-BY-NC",
      "priority": "",
      "versionNotes": "",
      "digitizedBySefaria": "",
      "language": "en",
      "versionSource": "https://www.korenpub.com/koren_en_usd/koren/tanakh-bible/the-koren-jerusalem-bible.html"
    },
    {
      "status": "locked",
      "extendedNotes": "",
      "versionTitle": "The Metsudah Five Megillot, Lakewood, N.J., 2001",
      "versionNotesInHebrew": "",
      "extendedNotesHebrew": "",
      "versionTitleInHebrew": "",
      "license": "CC-BY",
      "priority": "",
      "versionNotes": "",
      "digitizedBySefaria": "",
      "language": "en",
      "versionSource": "https://www.judaicaplace.com/search/brand/Metsudah-Publications/"
    },
    {
      "status": "locked",
      "extendedNotes": "",
      "versionTitle": "The Metsudah Five Megillot, Lakewood, N.J., 2001",
      "versionNotesInHebrew": "",
      "extendedNotesHebrew": "",
      "versionTitleInHebrew": "\u05d7\u05de\u05e9 \u05de\u05d2\u05d9\u05dc\u05d5\u05ea, \u05d4\u05d5\u05e6\u05d0\u05ea '\u05de\u05e6\u05d5\u05d3\u05d4', \u05dc\u05d9\u05d9\u05e7\u05d5\u05d5\u05d3 \u05ea\u05e9\u05e1\"\u05d0",
      "license": "CC-BY",
      "priority": "",
      "versionNotes": "",
      "digitizedBySefaria": "",
      "language": "he",
      "versionSource": "https://www.judaicaplace.com/search/brand/Metsudah-Publications/"
    },
    {
      "status": "locked",
      "extendedNotes": "",
      "versionTitle": "Bible du Rabbinat 1899 [fr]",
      "versionNotesInHebrew": "",
      "extendedNotesHebrew": "",
      "versionTitleInHebrew": "",
      "license": "Public Domain",
      "priority": "",
      "versionNotes": "",
      "digitizedBySefaria": "",
      "language": "en",
      "versionSource": "https://fr.wikisource.org/wiki/Bible_du_Rabbinat_1899"
    }
  ],
  "commentary": [],
  "extendedNotes": "",
  "categories": [
    "Tanakh",
    "Writings"
  ],
  "next": "Ecclesiastes 6",
  "heIndexTitle": "\u05e7\u05d4\u05dc\u05ea",
  "order": [
    33,
    7
  ],
  "heExtendedNotes": "",
  "versionStatus": "locked",
  "isComplex": false,
  "primary_category": "Tanakh",
  "versionNotes": "",
  "heLicense": "Public Domain",
  "extendedNotesHebrew": "",
  "heVersionTitle": "Tanach with Ta'amei Hamikra",
  "ref": "Ecclesiastes 5",
  "addressTypes": [
    "Perek",
    "Integer"
  ],
  "layer": [],
  "alts": [],
  "toSections": [
    5
  ],
  "indexTitle": "Ecclesiastes"
}